Determining if the pthread_create exist failed with the following output:
Change Dir: /home/pi/GIT/tugas_akhir/test raspi OCV/test raspi OCV/CMakeFiles/CMakeTmp

Run Build Command:"/usr/bin/make" "cmTC_0d2fd/fast"
/usr/bin/make -f CMakeFiles/cmTC_0d2fd.dir/build.make CMakeFiles/cmTC_0d2fd.dir/build
make[1]: Entering directory '/home/pi/GIT/tugas_akhir/test raspi OCV/test raspi OCV/CMakeFiles/CMakeTmp'
Building C object CMakeFiles/cmTC_0d2fd.dir/CheckSymbolExists.c.o
/usr/bin/cc     -o CMakeFiles/cmTC_0d2fd.dir/CheckSymbolExists.c.o   -c "/home/pi/GIT/tugas_akhir/test raspi OCV/test raspi OCV/CMakeFiles/CMakeTmp/CheckSymbolExists.c"
Linking C executable cmTC_0d2fd
/usr/bin/cmake -E cmake_link_script CMakeFiles/cmTC_0d2fd.dir/link.txt --verbose=1
/usr/bin/cc       CMakeFiles/cmTC_0d2fd.dir/CheckSymbolExists.c.o  -o cmTC_0d2fd 
CMakeFiles/cmTC_0d2fd.dir/CheckSymbolExists.c.o: In function `main':
CheckSymbolExists.c:(.text+0x38): undefined reference to `pthread_create'
collect2: error: ld returned 1 exit status
CMakeFiles/cmTC_0d2fd.dir/build.make:97: recipe for target 'cmTC_0d2fd' failed
make[1]: *** [cmTC_0d2fd] Error 1
make[1]: Leaving directory '/home/pi/GIT/tugas_akhir/test raspi OCV/test raspi OCV/CMakeFiles/CMakeTmp'
Makefile:126: recipe for target 'cmTC_0d2fd/fast' failed
make: *** [cmTC_0d2fd/fast] Error 2

File /home/pi/GIT/tugas_akhir/test raspi OCV/test raspi OCV/CMakeFiles/CMakeTmp/CheckSymbolExists.c:
/* */
#include <pthread.h>

int main(int argc, char** argv)
{
  (void)argv;
#ifndef pthread_create
  return ((int*)(&pthread_create))[argc];
#else
  (void)argc;
  return 0;
#endif
}

Determining if the function pthread_create exists in the pthreads failed with the following output:
Change Dir: /home/pi/GIT/tugas_akhir/test raspi OCV/test raspi OCV/CMakeFiles/CMakeTmp

Run Build Command:"/usr/bin/make" "cmTC_1e62b/fast"
/usr/bin/make -f CMakeFiles/cmTC_1e62b.dir/build.make CMakeFiles/cmTC_1e62b.dir/build
make[1]: Entering directory '/home/pi/GIT/tugas_akhir/test raspi OCV/test raspi OCV/CMakeFiles/CMakeTmp'
Building C object CMakeFiles/cmTC_1e62b.dir/CheckFunctionExists.c.o
/usr/bin/cc    -DCHECK_FUNCTION_EXISTS=pthread_create   -o CMakeFiles/cmTC_1e62b.dir/CheckFunctionExists.c.o   -c /usr/share/cmake-3.7/Modules/CheckFunctionExists.c
Linking C executable cmTC_1e62b
/usr/bin/cmake -E cmake_link_script CMakeFiles/cmTC_1e62b.dir/link.txt --verbose=1
/usr/bin/cc   -DCHECK_FUNCTION_EXISTS=pthread_create    CMakeFiles/cmTC_1e62b.dir/CheckFunctionExists.c.o  -o cmTC_1e62b -lpthreads 
/usr/bin/ld: cannot find -lpthreads
collect2: error: ld returned 1 exit status
CMakeFiles/cmTC_1e62b.dir/build.make:97: recipe for target 'cmTC_1e62b' failed
make[1]: *** [cmTC_1e62b] Error 1
make[1]: Leaving directory '/home/pi/GIT/tugas_akhir/test raspi OCV/test raspi OCV/CMakeFiles/CMakeTmp'
Makefile:126: recipe for target 'cmTC_1e62b/fast' failed
make: *** [cmTC_1e62b/fast] Error 2


