#STM Studio project file - do not edit
#Tue Jan 29 13:06:17 ICT 2019
Main.Version=1
Root.Child0.IsActive=true
Root.Child0.Name=debug_profile
Root.Child0.PathRelative=debug_profile.tsc
Root.Child0.Type=config
Root.ChildNb=1
Root.Name=debug_profile
Root.Type=folder
